{
  "events": [
    {
      "name": "Uptown Art Fair",
      "id": 1,
      "city": "Minneapolis"
    },
    {
      "name": "Swing Dance Night",
      "id": 2,
      "city": "Minneapolis"
    },
    {
      "name": "Lynlake Festival",
      "id": 3,
      "city": "Minneapolis"
    },
    {
      "name": "Edina Art Fair",
      "id": 4,
      "city": "Minneapolis"
    },
    {
      "name": "Luminary Loppet",
      "id": 5,
      "city": "Minneapolis"
    },
    {
      "name": "Food Truck Fair",
      "id": 6,
      "city": "Minneapolis"
    },
    {
      "name": "Art Crawl",
      "id": 7,
      "city": "Minneapolis"
    },
    {
      "name": "Fourth of July",
      "id": 8,
      "city": "Minneapolis"
    }
  ]
}